﻿## Interface: 50400
## Title: |cff1784d1ElvUI |rShadow and Light
## Author: Darth Predator, Repooc
## Version: 1.85
## Notes: Plugin-edit for |cff1784d1ElvUI|r.
## Notes-ruRU: Плагин-редакция для |cff1784d1ElvUI|r.
## eMail: darthpred@gmail.com, repooc@tukui.org
## URL: http://tukui.org/ 
## RequiredDeps: ElvUI
## OptionalDeps: iFilger_ConfigUI, BigWigs, Clique, Hermes, xCT+
## DefaultState: Enabled
## X-Tukui-ProjectID: 42
## X-Tukui-ProjectFolders: ElvUI_SLE

libs\load_libs.xml
locales\load_locales.xml
media\load_media.xml
ElvUI_SLE.lua
modules\load_modules.xml
skins\load_skins.xml
config\load_config.xml
layout\layout.lua
dev\load_dev.xml
Bindings.xml